…
    ## date created (size, mb): 2022-12-30 03:42:02 (1.701)

    ## file min/max dates: 1965-01-01 / 2020-02-29

    ## using cached file: C:\Users\user\AppData\Local/Cache/R/noaa_ghcnd/USS0023B17S.dly

    ## date created (size, mb): 2022-12-30 03:42:07 (0.964)

    ## file min/max dates: 1999-09-01 / 2022-12-31

``` r
weather_df
```

    ## # A tibble: 1,080 × 7
    ##    name           id          date        prcp  tmax  tmin month     
    ##    <chr>          <chr>       <date>     <dbl> <dbl> <dbl> <date>    
    ##  1 CentralPark_NY USW00094728 2017-01-01     0   8.9   4.4 2017-01-01
    ##  2 CentralPark_NY USW00094728 2017-01-02    53   5     2.8 2017-01-01
    ##  3 CentralPark_NY USW00094728 2017-01-03   147   6.1   3.9 2017-01-01
    ##  4 CentralPark_NY USW00094728 2017-01-04     0  11.1   1.1 2017-01-01
    ##  5 CentralPark_NY USW00094728 2017-01-05     0   1.1  -2.7 2017-01-01
    ##  6 CentralPark_NY USW00094728 2017-01-06    13   0.6  -3.8 2017-01-01
    ##  7 CentralPark_NY USW00094728 2017-01-07    81  -3.2  -6.6 2017-01-01
    ##  8 CentralPark_NY USW00094728 2017-01-08     0  -3.8  -8.8 2017-01-01
    ##  9 CentralPark_NY USW00094728 2017-01-09     0  -4.9  -9.9 2017-01-01
    ## 10 CentralPark_NY USW00094728 2017-01-10     0   7.8  -6   2017-01-01
    ## # … with 1,070 more rows
…
``` r
weather_df %>%
  group_by(name, month) %>%
  summarize(n_obs = n())
```

    ## `summarise()` has grouped output by 'name'. You can override using the
    ## `.groups` argument.

    ## # A tibble: 36 × 3
    ## # Groups:   name [3]
    ##    name           month      n_obs
    ##    <chr>          <date>     <int>
    ##  1 CentralPark_NY 2017-01-01    31
    ##  2 CentralPark_NY 2017-02-01    28
    ##  3 CentralPark_NY 2017-03-01    31
    ##  4 CentralPark_NY 2017-04-01    30
    ##  5 CentralPark_NY 2017-05-01    31
    ##  6 CentralPark_NY 2017-06-01    30
    ##  7 CentralPark_NY 2017-07-01    31
    ##  8 CentralPark_NY 2017-08-01    31
    ##  9 CentralPark_NY 2017-09-01    30
    ## 10 CentralPark_NY 2017-10-01    31
    ## # … with 26 more rows

``` r
weather_df %>%
  count(name, month, name = "n_obs")
```

    ## # A tibble: 36 × 3
    ##    name           month      n_obs
    ##    <chr>          <date>     <int>
    ##  1 CentralPark_NY 2017-01-01    31
    ##  2 CentralPark_NY 2017-02-01    28
    ##  3 CentralPark_NY 2017-03-01    31
    ##  4 CentralPark_NY 2017-04-01    30
    ##  5 CentralPark_NY 2017-05-01    31
    ##  6 CentralPark_NY 2017-06-01    30
    ##  7 CentralPark_NY 2017-07-01    31
    ##  8 CentralPark_NY 2017-08-01    31
    ##  9 CentralPark_NY 2017-09-01    30
    ## 10 CentralPark_NY 2017-10-01    31
    ## # … with 26 more rows
…
``` r
weather_df %>%
  group_by(name, month) %>%
  summarize(
    mean_tmax = mean(tmax),
    median_tmax = median(tmax)
  )
```

    ## `summarise()` has grouped output by 'name'. You can override using the
    ## `.groups` argument.

    ## # A tibble: 36 × 4
    ## # Groups:   name [3]
    ##    name           month      mean_tmax median_tmax
    ##    <chr>          <date>         <dbl>       <dbl>
    ##  1 CentralPark_NY 2017-01-01      5.98         6.1
    ##  2 CentralPark_NY 2017-02-01      9.28         8.3
    ##  3 CentralPark_NY 2017-03-01      8.22         8.3
    ##  4 CentralPark_NY 2017-04-01     18.3         18.3
    ##  5 CentralPark_NY 2017-05-01     20.1         19.4
    ##  6 CentralPark_NY 2017-06-01     26.3         27.2
    ##  7 CentralPark_NY 2017-07-01     28.7         29.4
    ##  8 CentralPark_NY 2017-08-01     27.2         27.2
    ##  9 CentralPark_NY 2017-09-01     25.4         26.1
    ## 10 CentralPark_NY 2017-10-01     21.8         22.2
    ## # … with 26 more rows

``` r
weather_df %>%
  group_by(name, month) %>%
  summarize(across(tmin:prcp, mean)) 
```

    ## `summarise()` has grouped output by 'name'. You can override using the
    ## `.groups` argument.

    ## # A tibble: 36 × 5
    ## # Groups:   name [3]
    ##    name           month        tmin  tmax  prcp
    ##    <chr>          <date>      <dbl> <dbl> <dbl>
    ##  1 CentralPark_NY 2017-01-01  0.748  5.98  39.5
    ##  2 CentralPark_NY 2017-02-01  1.45   9.28  22.5
    ##  3 CentralPark_NY 2017-03-01 -0.177  8.22  43.0
    ##  4 CentralPark_NY 2017-04-01  9.66  18.3   32.5
    ##  5 CentralPark_NY 2017-05-01 12.2   20.1   52.3
    ##  6 CentralPark_NY 2017-06-01 18.2   26.3   40.4
    ##  7 CentralPark_NY 2017-07-01 21.0   28.7   34.3
    ##  8 CentralPark_NY 2017-08-01 19.5   27.2   27.4
    ##  9 CentralPark_NY 2017-09-01 17.4   25.4   17.0
    ## 10 CentralPark_NY 2017-10-01 13.9   21.8   34.3
    ## # … with 26 more rows
…
``` r
weather_df %>%
  group_by(name, month)
```

    ## # A tibble: 1,080 × 7
    ## # Groups:   name, month [36]
    ##    name           id          date        prcp  tmax  tmin month     
    ##    <chr>          <chr>       <date>     <dbl> <dbl> <dbl> <date>    
    ##  1 CentralPark_NY USW00094728 2017-01-01     0   8.9   4.4 2017-01-01
    ##  2 CentralPark_NY USW00094728 2017-01-02    53   5     2.8 2017-01-01
    ##  3 CentralPark_NY USW00094728 2017-01-03   147   6.1   3.9 2017-01-01
    ##  4 CentralPark_NY USW00094728 2017-01-04     0  11.1   1.1 2017-01-01
    ##  5 CentralPark_NY USW00094728 2017-01-05     0   1.1  -2.7 2017-01-01
    ##  6 CentralPark_NY USW00094728 2017-01-06    13   0.6  -3.8 2017-01-01
    ##  7 CentralPark_NY USW00094728 2017-01-07    81  -3.2  -6.6 2017-01-01
    ##  8 CentralPark_NY USW00094728 2017-01-08     0  -3.8  -8.8 2017-01-01
    ##  9 CentralPark_NY USW00094728 2017-01-09     0  -4.9  -9.9 2017-01-01
    ## 10 CentralPark_NY USW00094728 2017-01-10     0   7.8  -6   2017-01-01
    ## # … with 1,070 more rows

``` r
weather_df %>%
  group_by(name, month) %>%
  filter(min_rank(tmax) < 4)
```

    ## # A tibble: 127 × 7
    ## # Groups:   name, month [36]
    ##    name           id          date        prcp  tmax  tmin month     
    ##    <chr>          <chr>       <date>     <dbl> <dbl> <dbl> <date>    
    ##  1 CentralPark_NY USW00094728 2017-01-07    81  -3.2  -6.6 2017-01-01
    ##  2 CentralPark_NY USW00094728 2017-01-08     0  -3.8  -8.8 2017-01-01
    ##  3 CentralPark_NY USW00094728 2017-01-09     0  -4.9  -9.9 2017-01-01
    ##  4 CentralPark_NY USW00094728 2017-02-03     0   0.6  -3.2 2017-02-01
    ##  5 CentralPark_NY USW00094728 2017-02-04     0   1.1  -5.5 2017-02-01
    ##  6 CentralPark_NY USW00094728 2017-02-10     0   0    -7.1 2017-02-01
    ##  7 CentralPark_NY USW00094728 2017-03-11     0  -1.6  -8.2 2017-03-01
    ##  8 CentralPark_NY USW00094728 2017-03-12     0  -1.6  -7.1 2017-03-01
    ##  9 CentralPark_NY USW00094728 2017-03-15     0  -3.2  -6.6 2017-03-01
    ## 10 CentralPark_NY USW00094728 2017-04-01     0   8.9   2.8 2017-04-01
    ## # … with 117 more rows

``` r
weather_df %>%
  group_by(name, month) %>%
  mutate(temp_ranking = min_rank(tmax)) %>%
  filter(min_rank(desc(tmax)) < 4)
```

    ## # A tibble: 149 × 8
    ## # Groups:   name, month [36]
    ##    name           id          date        prcp  tmax  tmin month      temp_ran…¹
    ##    <chr>          <chr>       <date>     <dbl> <dbl> <dbl> <date>          <int>
    ##  1 CentralPark_NY USW00094728 2017-01-12    13  18.9   8.3 2017-01-01         31
    ##  2 CentralPark_NY USW00094728 2017-01-13     0  16.7   0   2017-01-01         30
    ##  3 CentralPark_NY USW00094728 2017-01-26     5  13.3   6.1 2017-01-01         29
    ##  4 CentralPark_NY USW00094728 2017-02-19     0  18.3  11.7 2017-02-01         26
    ##  5 CentralPark_NY USW00094728 2017-02-23     0  18.3   6.7 2017-02-01         26
    ##  6 CentralPark_NY USW00094728 2017-02-24     0  21.1  14.4 2017-02-01         28
    ##  7 CentralPark_NY USW00094728 2017-03-01    30  21.1  12.2 2017-03-01         31
    ##  8 CentralPark_NY USW00094728 2017-03-02     0  17.8   1.7 2017-03-01         30
    ##  9 CentralPark_NY USW00094728 2017-03-25     3  16.7   5.6 2017-03-01         29
    ## 10 CentralPark_NY USW00094728 2017-04-16     0  30.6  15   2017-04-01         30
    ## # … with 139 more rows, and abbreviated variable name ¹​temp_ranking

``` r
weather_df %>%
  group_by(name) %>%
  mutate(temp_change = tmax - lag(tmax))
```

    ## # A tibble: 1,080 × 8
    ## # Groups:   name [3]
    ##    name           id          date        prcp  tmax  tmin month      temp_cha…¹
    ##    <chr>          <chr>       <date>     <dbl> <dbl> <dbl> <date>          <dbl>
    ##  1 CentralPark_NY USW00094728 2017-01-01     0   8.9   4.4 2017-01-01     NA    
    ##  2 CentralPark_NY USW00094728 2017-01-02    53   5     2.8 2017-01-01     -3.9  
    ##  3 CentralPark_NY USW00094728 2017-01-03   147   6.1   3.9 2017-01-01      1.1  
    ##  4 CentralPark_NY USW00094728 2017-01-04     0  11.1   1.1 2017-01-01      5    
    ##  5 CentralPark_NY USW00094728 2017-01-05     0   1.1  -2.7 2017-01-01    -10    
    ##  6 CentralPark_NY USW00094728 2017-01-06    13   0.6  -3.8 2017-01-01     -0.5  
    ##  7 CentralPark_NY USW00094728 2017-01-07    81  -3.2  -6.6 2017-01-01     -3.8  
    ##  8 CentralPark_NY USW00094728 2017-01-08     0  -3.8  -8.8 2017-01-01     -0.600
    ##  9 CentralPark_NY USW00094728 2017-01-09     0  -4.9  -9.9 2017-01-01     -1.10 
    ## 10 CentralPark_NY USW00094728 2017-01-10     0   7.8  -6   2017-01-01     12.7  
    ## # … with 1,070 more rows, and abbreviated variable name ¹​temp_change
…
